<?xml version="1.0" encoding="UTF-8"?>
<glyph name="hyphen" format="1">
  <advance width="671"/>
  <unicode hex="002d"/>
  <outline>
    <contour>
      <point x="90" y="729" type="line" smooth="no"/>
      <point x="582" y="729" type="line" smooth="no"/>
      <point x="582" y="565" type="line" smooth="no"/>
      <point x="90" y="565" type="line" smooth="no"/>
    </contour>
  </outline>
  <lib>
    <dict>
      <key>com.fontlab.hintData</key>
      <dict>
	<key>hhints</key>
	<array>
	  <dict>
	    <key>position</key>	    <integer>565</integer>
	    <key>width</key>	    <integer>164</integer>
	  </dict>
	</array>
	<key>vhints</key>
	<array>
	  <dict>
	    <key>position</key>
	    <integer>90</integer>
	    <key>width</key>
	    <integer>492</integer>
	  </dict>
	</array>
      </dict>
    </dict>
  </lib>
</glyph>
