<?xml version="1.0" encoding="UTF-8"?>
<glyph name="t" format="1">
  <advance width="432"/>
  <unicode hex="0074"/>
  <outline>
    <contour>
      <point x="113" y="1329" type="line" smooth="no"/>
      <point x="317" y="1329" type="line" smooth="no"/>
      <point x="317" y="1022" type="line" smooth="no"/>
      <point x="420" y="1022" type="line" smooth="no"/>
      <point x="420" y="817" type="line" smooth="no"/>
      <point x="317" y="817" type="line" smooth="no"/>
      <point x="317" y="305" type="line" smooth="yes"/>
      <point x="317" y="277.667"/>
      <point x="327" y="253.833"/>
      <point x="347" y="233.5" type="curve" smooth="yes"/>
      <point x="367" y="213.167"/>
      <point x="391.333" y="203"/>
      <point x="420" y="203" type="curve" smooth="no"/>
      <point x="420" y="-2" type="line" smooth="no"/>
      <point x="335.333" y="-2"/>
      <point x="263" y="28"/>
      <point x="203" y="88" type="curve" smooth="yes"/>
      <point x="143" y="148"/>
      <point x="113" y="220.333"/>
      <point x="113" y="305" type="curve" smooth="yes"/>
      <point x="113" y="817" type="line" smooth="no"/>
      <point x="10" y="817" type="line" smooth="no"/>
      <point x="10" y="1022" type="line" smooth="no"/>
      <point x="113" y="1022" type="line" smooth="no"/>
    </contour>
  </outline>
  <lib>
    <dict>
      <key>com.fontlab.hintData</key>
      <dict>
	<key>hhints</key>
	<array>
	  <dict>
	    <key>position</key>	    <integer>817</integer>
	    <key>width</key>	    <integer>205</integer>
	  </dict>
	</array>
	<key>vhints</key>
	<array>
	  <dict>
	    <key>position</key>
	    <integer>113</integer>
	    <key>width</key>
	    <integer>204</integer>
	  </dict>
	</array>
      </dict>
    </dict>
  </lib>
</glyph>
