<?xml version="1.0" encoding="UTF-8"?>
<glyph name="uni1EF9" format="1">
  <advance width="610"/>
  <unicode hex="1ef9"/>
  <outline>
    <component base="tildecomb" xOffset="280.243" yOffset="1301.71"/>
    <component base="y"/>
  </outline>
  <lib>
    <dict>
      <key>com.fontlab.hintData</key>
      <dict>
	<key>hhints</key>
	<array>
	  <dict>
	    <key>position</key>	    <integer>1004</integer>
	    <key>width</key>	    <integer>20</integer>
	  </dict>
	  <dict>
	    <key>position</key>	    <integer>1202</integer>
	    <key>width</key>	    <integer>149</integer>
	  </dict>
	  <dict>
	    <key>position</key>	    <integer>1251</integer>
	    <key>width</key>	    <integer>153</integer>
	  </dict>
	</array>
	<key>vhints</key>
	<array>
	  <dict>
	    <key>position</key>
	    <integer>50</integer>
	    <key>width</key>
	    <integer>522</integer>
	  </dict>
	</array>
      </dict>
    </dict>
  </lib>
</glyph>
